Solution Lecture 4
…
## 
## Attaching package: 'caret'

## The following object is masked from 'package:mosaic':
## 
##     dotPlot

data(GermanCredit)
data_credit<-GermanCredit
require(skimr)
skim(data_credit)

## Numeric Variables
## # A tibble: 61 x 13
##                               var    type missing complete     n     mean
##                             <chr>   <chr>   <dbl>    <dbl> <dbl>    <dbl>
##  1                            Age integer       0     1000  1000   35.546
##  2                         Amount integer       0     1000  1000 3271.258
##  3 CheckingAccountStatus.0.to.200 numeric       0     1000  1000    0.269
##  4   CheckingAccountStatus.gt.200 numeric       0     1000  1000    0.063
##  5     CheckingAccountStatus.lt.0 numeric       0     1000  1000    0.274
##  6     CheckingAccountStatus.none numeric       0     1000  1000    0.394
##  7         CreditHistory.Critical numeric       0     1000  1000    0.293
##  8            CreditHistory.Delay numeric       0     1000  1000    0.088
##  9 CreditHistory.NoCredit.AllPaid numeric       0     1000  1000    0.040
## 10         CreditHistory.PaidDuly numeric       0     1000  1000    0.530
## # ... with 51 more rows, and 7 more variables: sd <dbl>, min <dbl>, `25%
## #   quantile` <dbl>, median <dbl>, `75% quantile` <dbl>, max <dbl>,
## #   hist <chr>
## 
## Factor Variables
…
